NMM/simulation/qsim/nmm.msim.vcd
$comment
	File created using the following command:
		vcd file nmm.msim.vcd -direction
$end
$date
	Sun Nov 26 11:42:40 2023
$end
$version
	ModelSim Version 2020.1
$end
$timescale
	1ps
$end

$scope module nmm_vlg_vec_tst $end
$var reg 1 ! b0 $end
$var reg 1 " b1 $end
$var reg 1 # b2 $end
$var reg 1 $ b3 $end
$var reg 1 % clk $end
$var reg 1 & sqr_in $end
$var reg 1 ' sqr_out $end
$var wire 1 ( c_out $end
$var wire 1 ) dd [7] $end
$var wire 1 * dd [6] $end
$var wire 1 + dd [5] $end
$var wire 1 , dd [4] $end
$var wire 1 - dd [3] $end
$var wire 1 . dd [2] $end
$var wire 1 / dd [1] $end
$var wire 1 0 dd [0] $end
$var wire 1 1 ds [5] $end
$var wire 1 2 ds [4] $end
$var wire 1 3 ds [3] $end
$var wire 1 4 ds [2] $end
$var wire 1 5 ds [1] $end
$var wire 1 6 ds [0] $end

$scope module i1 $end
$var wire 1 7 gnd $end
$var wire 1 8 vcc $end
$var wire 1 9 unknown $end
$var tri1 1 : devclrn $end
$var tri1 1 ; devpor $end
$var tri1 1 < devoe $end
$var wire 1 = b0~input_o $end
$var wire 1 > b1~input_o $end
$var wire 1 ? b2~input_o $end
$var wire 1 @ b3~input_o $end
$var wire 1 A c_out~output_o $end
$var wire 1 B dd[7]~output_o $end
$var wire 1 C dd[6]~output_o $end
$var wire 1 D dd[5]~output_o $end
$var wire 1 E dd[4]~output_o $end
$var wire 1 F dd[3]~output_o $end
$var wire 1 G dd[2]~output_o $end
$var wire 1 H dd[1]~output_o $end
$var wire 1 I dd[0]~output_o $end
$var wire 1 J ds[5]~output_o $end
$var wire 1 K ds[4]~output_o $end
$var wire 1 L ds[3]~output_o $end
$var wire 1 M ds[2]~output_o $end
$var wire 1 N ds[1]~output_o $end
$var wire 1 O ds[0]~output_o $end
$var wire 1 P sqr_out~input_o $end
$var wire 1 Q sqr_in~input_o $end
$var wire 1 R clk~input_o $end
$var wire 1 S and1~combout $end
$var wire 1 T and1~clkctrl_outclk $end
$var wire 1 U clkm1|inst~0_combout $end
$var wire 1 V clkm1|inst~feeder_combout $end
$var wire 1 W nand1~combout $end
$var wire 1 X nand1~clkctrl_outclk $end
$var wire 1 Y clkm1|inst~q $end
$var wire 1 Z clkm1|inst1~0_combout $end
$var wire 1 [ clkm1|inst1~feeder_combout $end
$var wire 1 \ clkm1|inst1~q $end
$var wire 1 ] clkm1|inst2~0_combout $end
$var wire 1 ^ clkm1|inst2~feeder_combout $end
$var wire 1 _ clkm1|inst2~q $end
$var wire 1 ` clkm1|inst3~0_combout $end
$var wire 1 a clkm1|inst3~feeder_combout $end
$var wire 1 b clkm1|inst3~q $end
$var wire 1 c clkm2|inst~0_combout $end
$var wire 1 d clkm2|inst~feeder_combout $end
$var wire 1 e clkm2|inst~q $end
$var wire 1 f clkm2|inst1~0_combout $end
$var wire 1 g clkm2|inst1~feeder_combout $end
$var wire 1 h clkm2|inst1~q $end
$var wire 1 i clkm2|inst2~0_combout $end
$var wire 1 j clkm2|inst2~feeder_combout $end
$var wire 1 k clkm2|inst2~q $end
$var wire 1 l clkm2|inst3~0_combout $end
$var wire 1 m clkm2|inst3~feeder_combout $end
$var wire 1 n clkm2|inst3~q $end
$var wire 1 o clkm3|inst~0_combout $end
$var wire 1 p clkm3|inst~feeder_combout $end
$var wire 1 q clkm3|inst~q $end
$var wire 1 r clkm3|inst1~0_combout $end
$var wire 1 s clkm3|inst1~feeder_combout $end
$var wire 1 t clkm3|inst1~q $end
$var wire 1 u clkm3|inst2~0_combout $end
$var wire 1 v clkm3|inst2~feeder_combout $end
$var wire 1 w clkm3|inst2~q $end
$var wire 1 x clkm3|inst3~0_combout $end
$var wire 1 y clkm3|inst3~q $end
$var wire 1 z clkm1|inst7~0_combout $end
$var wire 1 { clkm1|inst7~feeder_combout $end
$var wire 1 | clkm1|inst7~q $end
$var wire 1 } clkm1|inst8~0_combout $end
$var wire 1 ~ clkm1|inst8~feeder_combout $end
$var wire 1 !! clkm1|inst8~q $end
$var wire 1 "! clkm1|inst9~0_combout $end
$var wire 1 #! clkm1|inst9~feeder_combout $end
$var wire 1 $! clkm1|inst9~q $end
$var wire 1 %! clkm1|inst10~0_combout $end
$var wire 1 &! clkm1|inst10~feeder_combout $end
$var wire 1 '! clkm1|inst10~q $end
$var wire 1 (! clkm2|inst7~0_combout $end
$var wire 1 )! clkm2|inst7~feeder_combout $end
$var wire 1 *! clkm2|inst7~q $end
$var wire 1 +! clkm2|inst8~0_combout $end
$var wire 1 ,! clkm2|inst8~feeder_combout $end
$var wire 1 -! clkm2|inst8~q $end
$var wire 1 .! clkm2|inst9~0_combout $end
$var wire 1 /! clkm2|inst9~q $end
$var wire 1 0! clkm2|inst10~0_combout $end
$var wire 1 1! clkm2|inst10~feeder_combout $end
$var wire 1 2! clkm2|inst10~q $end
$var wire 1 3! clkm3|inst7~0_combout $end
$var wire 1 4! clkm3|inst7~feeder_combout $end
$var wire 1 5! clkm3|inst7~q $end
$var wire 1 6! clkm3|inst8~0_combout $end
$var wire 1 7! clkm3|inst8~feeder_combout $end
$var wire 1 8! clkm3|inst8~q $end
$var wire 1 9! clkm3|inst9~0_combout $end
$var wire 1 :! clkm3|inst9~feeder_combout $end
$var wire 1 ;! clkm3|inst9~q $end
$var wire 1 <! clkm3|inst10~0_combout $end
$var wire 1 =! clkm3|inst10~q $end
$var wire 1 >! clkm1|inst28~0_combout $end
$var wire 1 ?! clkm2|inst22~0_combout $end
$var wire 1 @! clkm2|inst22~1_combout $end
$var wire 1 A! clkm2|inst22~2_combout $end
$var wire 1 B! clkm3|inst22~0_combout $end
$var wire 1 C! clkm3|inst22~1_combout $end
$var wire 1 D! clkm3|inst22~2_combout $end
$var wire 1 E! clkm3|inst22~3_combout $end
$var wire 1 F! clkm3|inst40~0_combout $end
$var wire 1 G! clkm3|inst40~1_combout $end
$var wire 1 H! clkm3|inst40~2_combout $end
$upscope $end
$upscope $end
$enddefinitions $end
#0
$dumpvars
0!
0"
0#
0$
0%
0&
1'
0(
00
0/
0.
0-
0,
0+
0*
0)
16
05
04
03
02
01
07
18
x9
1:
1;
1<
0=
0>
0?
0@
0A
0B
0C
0D
0E
0F
0G
0H
0I
0J
0K
0L
0M
0N
1O
1P
0Q
0R
0S
0T
1U
1V
0W
0X
0Y
1Z
1[
0\
1]
1^
0_
1`
1a
0b
1c
1d
0e
1f
1g
0h
1i
1j
0k
1l
1m
0n
1o
1p
0q
1r
1s
0t
1u
1v
0w
1x
0y
1z
1{
0|
1}
1~
0!!
1"!
1#!
0$!
1%!
1&!
0'!
1(!
1)!
0*!
1+!
1,!
0-!
1.!
0/!
10!
11!
02!
13!
14!
05!
16!
17!
08!
19!
1:!
0;!
1<!
0=!
0>!
0?!
0@!
0A!
0B!
0C!
0D!
0E!
0F!
0G!
0H!
$end
#5000
1%
1R
#10000
1$
0%
1@
0R
#15000
1%
1R
#20000
0$
0%
0@
0R
#25000
1%
1R
#30000
0'
1"
0%
0P
1>
0R
1W
1X
#35000
1%
1R
#40000
0"
0%
0>
0R
#45000
1%
1R
#50000
1&
1"
0%
1Q
1>
0R
0W
0X
#55000
1%
1R
1S
1T
1Y
0U
0V
#60000
0"
0%
0>
0R
0S
0T
1|
0z
0{
#65000
1%
1R
1S
1T
0Y
1U
1V
1\
0Z
0[
#70000
1!
0%
1=
0R
0S
0T
0|
1z
1{
1!!
1>!
0}
0~
#75000
1%
1R
1S
1T
1Y
0U
0V
#80000
1'
0!
0%
1P
0=
0R
0S
0T
1|
0z
0{
#85000
1%
1R
#90000
1"
0%
1>
0R
#95000
1%
1R
#100000
0&
0"
0%
0Q
0>
0R
#105000
1%
1R
#110000
1$
0%
1@
0R
#115000
1%
1R
#120000
0$
0%
0@
0R
#125000
1%
1R
#130000
0'
1"
0%
0P
1>
0R
1W
1X
0Y
0\
0|
0!!
0>!
1U
1Z
1z
1}
1V
1[
1{
1~
#135000
1%
1R
#140000
0"
0%
0>
0R
#145000
1%
1R
#150000
1!
1&
0%
1=
1Q
0R
0W
0X
#155000
1%
1R
1S
1T
1Y
0U
0V
#160000
0!
0%
0=
0R
0S
0T
1|
0z
0{
#165000
1%
1R
1S
1T
0Y
1U
1V
1\
0Z
0[
#170000
1"
0%
1>
0R
0S
0T
0|
1z
1{
1!!
1>!
0}
0~
#175000
1%
1R
1S
1T
1Y
0U
0V
#180000
1'
0"
0%
1P
0>
0R
0S
0T
1|
0z
0{
#185000
1%
1R
#190000
1"
0%
1>
0R
#195000
1%
1R
#200000
0&
0"
0%
0Q
0>
0R
#205000
1%
1R
#210000
1$
0%
1@
0R
#215000
1%
1R
#220000
0$
0%
0@
0R
#225000
1%
1R
#230000
0'
1"
0%
0P
1>
0R
1W
1X
0Y
0\
0|
0!!
0>!
1U
1Z
1z
1}
1V
1[
1{
1~
#235000
1%
1R
#240000
0"
0%
0>
0R
#245000
1%
1R
#250000
1&
1$
0%
1Q
1@
0R
0W
0X
#255000
1%
1R
1S
1T
1Y
0U
0V
#260000
0$
0%
0@
0R
0S
0T
1|
0z
0{
#265000
1%
1R
1S
1T
0Y
1U
1V
1\
0Z
0[
#270000
1$
0%
1@
0R
0S
0T
0|
1z
1{
1!!
1>!
0}
0~
#275000
1%
1R
1S
1T
1Y
0U
0V
#280000
1'
0$
0%
1P
0@
0R
0S
0T
1|
0z
0{
#285000
1%
1R
#290000
0%
0R
#295000
1%
1R
#300000
0&
0%
0Q
0R
#305000
1%
1R
#310000
0%
0R
#315000
1%
1R
#320000
0%
0R
#325000
1%
1R
#330000
0'
0%
0P
0R
1W
1X
0Y
0\
0|
0!!
0>!
1U
1Z
1z
1}
1V
1[
1{
1~
#335000
1%
1R
#340000
0%
0R
#345000
1%
1R
#350000
1&
0%
1Q
0R
0W
0X
#355000
1%
1R
1S
1T
1Y
0U
0V
#360000
0%
0R
0S
0T
1|
0z
0{
#365000
1%
1R
1S
1T
0Y
1U
1V
1\
0Z
0[
#370000
0%
0R
0S
0T
0|
1z
1{
1!!
1>!
0}
0~
#375000
1%
1R
1S
1T
1Y
0U
0V
#380000
1'
0%
1P
0R
0S
0T
1|
0z
0{
#385000
1%
1R
#390000
0%
0R
#395000
1%
1R
#400000
0&
0%
0Q
0R
#405000
1%
1R
#410000
0%
0R
#415000
1%
1R
#420000
0%
0R
#425000
1%
1R
#430000
0'
0%
0P
0R
1W
1X
0Y
0\
0|
0!!
0>!
1U
1Z
1z
1}
1V
1[
1{
1~
#435000
1%
1R
#440000
0%
0R
#445000
1%
1R
#450000
1&
0%
1Q
0R
0W
0X
#455000
1%
1R
1S
1T
1Y
0U
0V
#460000
0%
0R
0S
0T
1|
0z
0{
#465000
1%
1R
1S
1T
0Y
1U
1V
1\
0Z
0[
#470000
0%
0R
0S
0T
0|
1z
1{
1!!
1>!
0}
0~
#475000
1%
1R
1S
1T
1Y
0U
0V
#480000
1'
0%
1P
0R
0S
0T
1|
0z
0{
#485000
1%
1R
#490000
0%
0R
#495000
1%
1R
#500000
0&
0%
0Q
0R
#505000
1%
1R
#510000
0%
0R
#515000
1%
1R
#520000
0%
0R
#525000
1%
1R
#530000
0'
0%
0P
0R
1W
1X
0Y
0\
0|
0!!
0>!
1U
1Z
1z
1}
1V
1[
1{
1~
#535000
1%
1R
#540000
0%
0R
#545000
1%
1R
#550000
1&
0%
1Q
0R
0W
0X
#555000
1%
1R
1S
1T
1Y
0U
0V
#560000
0%
0R
0S
0T
1|
0z
0{
#565000
1%
1R
1S
1T
0Y
1U
1V
1\
0Z
0[
#570000
0%
0R
0S
0T
0|
1z
1{
1!!
1>!
0}
0~
#575000
1%
1R
1S
1T
1Y
0U
0V
#580000
1'
0%
1P
0R
0S
0T
1|
0z
0{
#585000
1%
1R
#590000
0%
0R
#595000
1%
1R
#600000
0&
0%
0Q
0R
#605000
1%
1R
#610000
0%
0R
#615000
1%
1R
#620000
0%
0R
#625000
1%
1R
#630000
0'
0%
0P
0R
1W
1X
0Y
0\
0|
0!!
0>!
1U
1Z
1z
1}
1V
1[
1{
1~
#635000
1%
1R
#640000
0%
0R
#645000
1%
1R
#650000
1&
0%
1Q
0R
0W
0X
#655000
1%
1R
1S
1T
1Y
0U
0V
#660000
0%
0R
0S
0T
1|
0z
0{
#665000
1%
1R
1S
1T
0Y
1U
1V
1\
0Z
0[
#670000
0%
0R
0S
0T
0|
1z
1{
1!!
1>!
0}
0~
#675000
1%
1R
1S
1T
1Y
0U
0V
#680000
1'
0%
1P
0R
0S
0T
1|
0z
0{
#685000
1%
1R
#690000
0%
0R
#695000
1%
1R
#700000
0&
0%
0Q
0R
#705000
1%
1R
#710000
0%
0R
#715000
1%
1R
#720000
0%
0R
#725000
1%
1R
#730000
0'
0%
0P
0R
1W
1X
0Y
0\
0|
0!!
0>!
1U
1Z
1z
1}
1V
1[
1{
1~
#735000
1%
1R
#740000
0%
0R
#745000
1%
1R
#750000
1&
0%
1Q
0R
0W
0X
#755000
1%
1R
1S
1T
1Y
0U
0V
#760000
0%
0R
0S
0T
1|
0z
0{
#765000
1%
1R
1S
1T
0Y
1U
1V
1\
0Z
0[
#770000
0%
0R
0S
0T
0|
1z
1{
1!!
1>!
0}
0~
#775000
1%
1R
1S
1T
1Y
0U
0V
#780000
1'
0%
1P
0R
0S
0T
1|
0z
0{
#785000
1%
1R
#790000
0%
0R
#795000
1%
1R
#800000
0&
0%
0Q
0R
#805000
1%
1R
#810000
0%
0R
#815000
1%
1R
#820000
0%
0R
#825000
1%
1R
#830000
0'
0%
0P
0R
1W
1X
0Y
0\
0|
0!!
0>!
1U
1Z
1z
1}
1V
1[
1{
1~
#835000
1%
1R
#840000
0%
0R
#845000
1%
1R
#850000
1&
0%
1Q
0R
0W
0X
#855000
1%
1R
1S
1T
1Y
0U
0V
#860000
0%
0R
0S
0T
1|
0z
0{
#865000
1%
1R
1S
1T
0Y
1U
1V
1\
0Z
0[
#870000
0%
0R
0S
0T
0|
1z
1{
1!!
1>!
0}
0~
#875000
1%
1R
1S
1T
1Y
0U
0V
#880000
1'
0%
1P
0R
0S
0T
1|
0z
0{
#885000
1%
1R
#890000
0%
0R
#895000
1%
1R
#900000
0&
0%
0Q
0R
#905000
1%
1R
#910000
0%
0R
#915000
1%
1R
#920000
0%
0R
#925000
1%
1R
#930000
0'
0%
0P
0R
1W
1X
0Y
0\
0|
0!!
0>!
1U
1Z
1z
1}
1V
1[
1{
1~
#935000
1%
1R
#940000
0%
0R
#945000
1%
1R
#950000
1&
0%
1Q
0R
0W
0X
#955000
1%
1R
1S
1T
1Y
0U
0V
#960000
0%
0R
0S
0T
1|
0z
0{
#965000
1%
1R
1S
1T
0Y
1U
1V
1\
0Z
0[
#970000
0%
0R
0S
0T
0|
1z
1{
1!!
1>!
0}
0~
#975000
1%
1R
1S
1T
1Y
0U
0V
#980000
1'
0%
1P
0R
0S
0T
1|
0z
0{
#985000
1%
1R
#990000
0%
0R
#995000
1%
1R
