OLD/Controller - OLD/simulation/qsim/controller.msim.vcd
$comment
	File created using the following command:
		vcd file controller.msim.vcd -direction
$end
$date
	Sun Aug 20 13:52:11 2023
$end
$version
	ModelSim Version 10.1d
$end
$timescale
	1ps
$end
$scope module controller_vlg_vec_tst $end
$var reg 12 ! A [11:0] $end
$var reg 1 " clk $end
$var wire 1 # M [11] $end
$var wire 1 $ M [10] $end
$var wire 1 % M [9] $end
$var wire 1 & M [8] $end
$var wire 1 ' M [7] $end
$var wire 1 ( M [6] $end
$var wire 1 ) M [5] $end
$var wire 1 * M [4] $end
$var wire 1 + M [3] $end
$var wire 1 , M [2] $end
$var wire 1 - M [1] $end
$var wire 1 . M [0] $end
$var wire 1 / sampler $end
$scope module i1 $end
$var wire 1 0 gnd $end
$var wire 1 1 vcc $end
$var wire 1 2 unknown $end
$var tri1 1 3 devclrn $end
$var tri1 1 4 devpor $end
$var tri1 1 5 devoe $end
$var wire 1 6 M[0]~output_o $end
$var wire 1 7 M[1]~output_o $end
$var wire 1 8 M[2]~output_o $end
$var wire 1 9 M[3]~output_o $end
$var wire 1 : M[4]~output_o $end
$var wire 1 ; M[5]~output_o $end
$var wire 1 < M[6]~output_o $end
$var wire 1 = M[7]~output_o $end
$var wire 1 > M[8]~output_o $end
$var wire 1 ? M[9]~output_o $end
$var wire 1 @ M[10]~output_o $end
$var wire 1 A M[11]~output_o $end
$var wire 1 B clk~input_o $end
$var wire 1 C clk~inputclkctrl_outclk $end
$var wire 1 D A[8]~input_o $end
$var wire 1 E number[0]~1_combout $end
$var wire 1 F number[1]~0_combout $end
$var wire 1 G Equal2~0_combout $end
$var wire 1 H Equal2~1_combout $end
$var wire 1 I Equal2~2_combout $end
$var wire 1 J A[7]~input_o $end
$var wire 1 K A[6]~input_o $end
$var wire 1 L memory_1[6]~feeder_combout $end
$var wire 1 M A[5]~input_o $end
$var wire 1 N A[4]~input_o $end
$var wire 1 O A[3]~input_o $end
$var wire 1 P memory_1[3]~feeder_combout $end
$var wire 1 Q A[2]~input_o $end
$var wire 1 R A[1]~input_o $end
$var wire 1 S A[0]~input_o $end
$var wire 1 T memory_1[0]~feeder_combout $end
$var wire 1 U Add1~1 $end
$var wire 1 V Add1~3 $end
$var wire 1 W Add1~5 $end
$var wire 1 X Add1~7 $end
$var wire 1 Y Add1~9 $end
$var wire 1 Z Add1~11 $end
$var wire 1 [ Add1~13 $end
$var wire 1 \ Add1~15 $end
$var wire 1 ] Add1~16_combout $end
$var wire 1 ^ A[11]~input_o $end
$var wire 1 _ Equal0~0_combout $end
$var wire 1 ` memory_1[11]~feeder_combout $end
$var wire 1 a A[10]~input_o $end
$var wire 1 b A[9]~input_o $end
$var wire 1 c memory_1[9]~feeder_combout $end
$var wire 1 d Add1~17 $end
$var wire 1 e Add1~19 $end
$var wire 1 f Add1~21 $end
$var wire 1 g Add1~23 $end
$var wire 1 h Add1~24_combout $end
$var wire 1 i Add1~22_combout $end
$var wire 1 j Add1~20_combout $end
$var wire 1 k Add1~18_combout $end
$var wire 1 l Add1~14_combout $end
$var wire 1 m Add1~12_combout $end
$var wire 1 n Add1~10_combout $end
$var wire 1 o Add1~8_combout $end
$var wire 1 p average[2]~12_combout $end
$var wire 1 q Add1~6_combout $end
$var wire 1 r Add0~4_combout $end
$var wire 1 s Add1~4_combout $end
$var wire 1 t Add1~2_combout $end
$var wire 1 u Add0~1 $end
$var wire 1 v Add0~2_combout $end
$var wire 1 w Add1~0_combout $end
$var wire 1 x Add0~0_combout $end
$var wire 1 y Add2~1 $end
$var wire 1 z Add2~3 $end
$var wire 1 { Add2~5 $end
$var wire 1 | Add2~6_combout $end
$var wire 1 } Add2~4_combout $end
$var wire 1 ~ Add2~2_combout $end
$var wire 1 !! Add2~0_combout $end
$var wire 1 "! Add3~1 $end
$var wire 1 #! Add3~3 $end
$var wire 1 $! Add3~5 $end
$var wire 1 %! Add3~7 $end
$var wire 1 &! Add3~8_combout $end
$var wire 1 '! Div0|auto_generated|divider|divider|op_2~0_combout $end
$var wire 1 (! Div0|auto_generated|divider|divider|StageOut[44]~153_combout $end
$var wire 1 )! Div0|auto_generated|divider|divider|StageOut[44]~152_combout $end
$var wire 1 *! Add3~6_combout $end
$var wire 1 +! Div0|auto_generated|divider|divider|op_3~1 $end
$var wire 1 ,! Div0|auto_generated|divider|divider|op_3~2_combout $end
$var wire 1 -! Div0|auto_generated|divider|divider|StageOut[49]~185_combout $end
$var wire 1 .! Div0|auto_generated|divider|divider|StageOut[54]~174_combout $end
$var wire 1 /! Div0|auto_generated|divider|divider|StageOut[49]~155_combout $end
$var wire 1 0! Div0|auto_generated|divider|divider|op_3~0_combout $end
$var wire 1 1! Div0|auto_generated|divider|divider|StageOut[48]~157_combout $end
$var wire 1 2! Div0|auto_generated|divider|divider|StageOut[48]~156_combout $end
$var wire 1 3! Add3~4_combout $end
$var wire 1 4! Div0|auto_generated|divider|divider|op_4~1 $end
$var wire 1 5! Div0|auto_generated|divider|divider|op_4~3 $end
$var wire 1 6! Div0|auto_generated|divider|divider|op_4~4_combout $end
$var wire 1 7! Div0|auto_generated|divider|divider|StageOut[54]~158_combout $end
$var wire 1 8! Div0|auto_generated|divider|divider|op_4~2_combout $end
$var wire 1 9! Div0|auto_generated|divider|divider|StageOut[53]~159_combout $end
$var wire 1 :! Div0|auto_generated|divider|divider|StageOut[53]~186_combout $end
$var wire 1 ;! Div0|auto_generated|divider|divider|StageOut[52]~160_combout $end
$var wire 1 <! Div0|auto_generated|divider|divider|op_4~0_combout $end
$var wire 1 =! Div0|auto_generated|divider|divider|StageOut[52]~161_combout $end
$var wire 1 >! Add3~2_combout $end
$var wire 1 ?! Div0|auto_generated|divider|divider|op_5~1 $end
$var wire 1 @! Div0|auto_generated|divider|divider|op_5~3 $end
$var wire 1 A! Div0|auto_generated|divider|divider|op_5~5 $end
$var wire 1 B! Div0|auto_generated|divider|divider|op_5~7_cout $end
$var wire 1 C! Div0|auto_generated|divider|divider|op_5~8_combout $end
$var wire 1 D! average[1]~11_combout $end
$var wire 1 E! Add0~3 $end
$var wire 1 F! Add0~5 $end
$var wire 1 G! Add0~6_combout $end
$var wire 1 H! Add2~7 $end
$var wire 1 I! Add2~8_combout $end
$var wire 1 J! Add3~9 $end
$var wire 1 K! Add3~11 $end
$var wire 1 L! Add3~12_combout $end
$var wire 1 M! Div0|auto_generated|divider|divider|op_14~0_combout $end
$var wire 1 N! Div0|auto_generated|divider|divider|StageOut[36]~145_combout $end
$var wire 1 O! Div0|auto_generated|divider|divider|StageOut[36]~144_combout $end
$var wire 1 P! Div0|auto_generated|divider|divider|op_1~1 $end
$var wire 1 Q! Div0|auto_generated|divider|divider|op_1~2_combout $end
$var wire 1 R! Div0|auto_generated|divider|divider|StageOut[41]~147_combout $end
$var wire 1 S! Div0|auto_generated|divider|divider|StageOut[41]~183_combout $end
$var wire 1 T! Div0|auto_generated|divider|divider|op_1~0_combout $end
$var wire 1 U! Div0|auto_generated|divider|divider|StageOut[40]~149_combout $end
$var wire 1 V! Div0|auto_generated|divider|divider|StageOut[40]~148_combout $end
$var wire 1 W! Div0|auto_generated|divider|divider|op_2~1 $end
$var wire 1 X! Div0|auto_generated|divider|divider|op_2~3 $end
$var wire 1 Y! Div0|auto_generated|divider|divider|op_2~4_combout $end
$var wire 1 Z! Div0|auto_generated|divider|divider|StageOut[46]~150_combout $end
$var wire 1 [! Div0|auto_generated|divider|divider|StageOut[46]~172_combout $end
$var wire 1 \! Div0|auto_generated|divider|divider|op_2~2_combout $end
$var wire 1 ]! Div0|auto_generated|divider|divider|StageOut[45]~151_combout $end
$var wire 1 ^! Div0|auto_generated|divider|divider|op_3~3 $end
$var wire 1 _! Div0|auto_generated|divider|divider|op_3~5 $end
$var wire 1 `! Div0|auto_generated|divider|divider|op_3~7_cout $end
$var wire 1 a! Div0|auto_generated|divider|divider|op_3~8_combout $end
$var wire 1 b! average[3]~13_combout $end
$var wire 1 c! Add0~7 $end
$var wire 1 d! Add0~8_combout $end
$var wire 1 e! Add2~9 $end
$var wire 1 f! Add2~11 $end
$var wire 1 g! Add2~12_combout $end
$var wire 1 h! Add3~13 $end
$var wire 1 i! Add3~14_combout $end
$var wire 1 j! Div0|auto_generated|divider|divider|op_13~0_combout $end
$var wire 1 k! Div0|auto_generated|divider|divider|StageOut[32]~141_combout $end
$var wire 1 l! Div0|auto_generated|divider|divider|StageOut[32]~140_combout $end
$var wire 1 m! Div0|auto_generated|divider|divider|op_14~1 $end
$var wire 1 n! Div0|auto_generated|divider|divider|op_14~2_combout $end
$var wire 1 o! Div0|auto_generated|divider|divider|StageOut[37]~182_combout $end
$var wire 1 p! Div0|auto_generated|divider|divider|StageOut[42]~171_combout $end
$var wire 1 q! Div0|auto_generated|divider|divider|StageOut[37]~143_combout $end
$var wire 1 r! Div0|auto_generated|divider|divider|op_1~3 $end
$var wire 1 s! Div0|auto_generated|divider|divider|op_1~4_combout $end
$var wire 1 t! Div0|auto_generated|divider|divider|StageOut[42]~146_combout $end
$var wire 1 u! Div0|auto_generated|divider|divider|op_2~5 $end
$var wire 1 v! Div0|auto_generated|divider|divider|op_2~7_cout $end
$var wire 1 w! Div0|auto_generated|divider|divider|op_2~8_combout $end
$var wire 1 x! average[4]~14_combout $end
$var wire 1 y! Add0~9 $end
$var wire 1 z! Add0~11 $end
$var wire 1 {! Add0~12_combout $end
$var wire 1 |! Add2~13 $end
$var wire 1 }! Add2~14_combout $end
$var wire 1 ~! Add3~15 $end
$var wire 1 !" Add3~17 $end
$var wire 1 "" Add3~18_combout $end
$var wire 1 #" Div0|auto_generated|divider|divider|op_11~0_combout $end
$var wire 1 $" Div0|auto_generated|divider|divider|StageOut[29]~180_combout $end
$var wire 1 %" Div0|auto_generated|divider|divider|StageOut[24]~133_combout $end
$var wire 1 &" Div0|auto_generated|divider|divider|StageOut[24]~132_combout $end
$var wire 1 '" Div0|auto_generated|divider|divider|op_12~1 $end
$var wire 1 (" Div0|auto_generated|divider|divider|op_12~2_combout $end
$var wire 1 )" Div0|auto_generated|divider|divider|StageOut[34]~169_combout $end
$var wire 1 *" Div0|auto_generated|divider|divider|StageOut[29]~135_combout $end
$var wire 1 +" Div0|auto_generated|divider|divider|op_12~0_combout $end
$var wire 1 ," Div0|auto_generated|divider|divider|StageOut[28]~137_combout $end
$var wire 1 -" Div0|auto_generated|divider|divider|StageOut[28]~136_combout $end
$var wire 1 ." Div0|auto_generated|divider|divider|op_13~1 $end
$var wire 1 /" Div0|auto_generated|divider|divider|op_13~3 $end
$var wire 1 0" Div0|auto_generated|divider|divider|op_13~4_combout $end
$var wire 1 1" Div0|auto_generated|divider|divider|StageOut[34]~138_combout $end
$var wire 1 2" Div0|auto_generated|divider|divider|op_13~2_combout $end
$var wire 1 3" Div0|auto_generated|divider|divider|StageOut[33]~139_combout $end
$var wire 1 4" Div0|auto_generated|divider|divider|op_14~3 $end
$var wire 1 5" Div0|auto_generated|divider|divider|op_14~5 $end
$var wire 1 6" Div0|auto_generated|divider|divider|op_14~7_cout $end
$var wire 1 7" Div0|auto_generated|divider|divider|op_14~8_combout $end
$var wire 1 8" average[6]~16_combout $end
$var wire 1 9" average[6]~feeder_combout $end
$var wire 1 :" Add0~13 $end
$var wire 1 ;" Add0~14_combout $end
$var wire 1 <" Add2~15 $end
$var wire 1 =" Add2~17 $end
$var wire 1 >" Add2~18_combout $end
$var wire 1 ?" Add3~19 $end
$var wire 1 @" Add3~20_combout $end
$var wire 1 A" Div0|auto_generated|divider|divider|StageOut[20]~128_combout $end
$var wire 1 B" Div0|auto_generated|divider|divider|op_10~0_combout $end
$var wire 1 C" Div0|auto_generated|divider|divider|StageOut[20]~129_combout $end
$var wire 1 D" Div0|auto_generated|divider|divider|op_11~1 $end
$var wire 1 E" Div0|auto_generated|divider|divider|op_11~2_combout $end
$var wire 1 F" Div0|auto_generated|divider|divider|StageOut[25]~179_combout $end
$var wire 1 G" Div0|auto_generated|divider|divider|StageOut[30]~168_combout $end
$var wire 1 H" Div0|auto_generated|divider|divider|StageOut[25]~131_combout $end
$var wire 1 I" Div0|auto_generated|divider|divider|op_12~3 $end
$var wire 1 J" Div0|auto_generated|divider|divider|op_12~4_combout $end
$var wire 1 K" Div0|auto_generated|divider|divider|StageOut[30]~134_combout $end
$var wire 1 L" Div0|auto_generated|divider|divider|op_13~5 $end
$var wire 1 M" Div0|auto_generated|divider|divider|op_13~7_cout $end
$var wire 1 N" Div0|auto_generated|divider|divider|op_13~8_combout $end
$var wire 1 O" average[7]~17_combout $end
$var wire 1 P" average[7]~feeder_combout $end
$var wire 1 Q" Add0~15 $end
$var wire 1 R" Add0~17 $end
$var wire 1 S" Add0~18_combout $end
$var wire 1 T" Add2~19 $end
$var wire 1 U" Add2~20_combout $end
$var wire 1 V" Add3~21 $end
$var wire 1 W" Add3~23 $end
$var wire 1 X" Add3~24_combout $end
$var wire 1 Y" Div0|auto_generated|divider|divider|op_8~0_combout $end
$var wire 1 Z" Div0|auto_generated|divider|divider|StageOut[12]~121_combout $end
$var wire 1 [" Div0|auto_generated|divider|divider|StageOut[12]~120_combout $end
$var wire 1 \" Div0|auto_generated|divider|divider|op_9~1 $end
$var wire 1 ]" Div0|auto_generated|divider|divider|op_9~2_combout $end
$var wire 1 ^" Div0|auto_generated|divider|divider|StageOut[17]~123_combout $end
$var wire 1 _" Div0|auto_generated|divider|divider|StageOut[17]~177_combout $end
$var wire 1 `" Div0|auto_generated|divider|divider|op_9~0_combout $end
$var wire 1 a" Div0|auto_generated|divider|divider|StageOut[16]~125_combout $end
$var wire 1 b" Div0|auto_generated|divider|divider|op_10~1 $end
$var wire 1 c" Div0|auto_generated|divider|divider|op_10~3 $end
$var wire 1 d" Div0|auto_generated|divider|divider|op_10~4_combout $end
$var wire 1 e" Div0|auto_generated|divider|divider|StageOut[22]~126_combout $end
$var wire 1 f" Div0|auto_generated|divider|divider|StageOut[22]~166_combout $end
$var wire 1 g" Div0|auto_generated|divider|divider|StageOut[21]~127_combout $end
$var wire 1 h" Div0|auto_generated|divider|divider|StageOut[21]~178_combout $end
$var wire 1 i" Div0|auto_generated|divider|divider|op_11~3 $end
$var wire 1 j" Div0|auto_generated|divider|divider|op_11~5 $end
$var wire 1 k" Div0|auto_generated|divider|divider|op_11~7_cout $end
$var wire 1 l" Div0|auto_generated|divider|divider|op_11~8_combout $end
$var wire 1 m" average[9]~19_combout $end
$var wire 1 n" Add0~19 $end
$var wire 1 o" Add0~20_combout $end
$var wire 1 p" Add2~21 $end
$var wire 1 q" Add2~23 $end
$var wire 1 r" Add2~24_combout $end
$var wire 1 s" Add3~25 $end
$var wire 1 t" Add3~26_combout $end
$var wire 1 u" Div0|auto_generated|divider|divider|op_8~1 $end
$var wire 1 v" Div0|auto_generated|divider|divider|op_8~2_combout $end
$var wire 1 w" Div0|auto_generated|divider|divider|StageOut[18]~176_combout $end
$var wire 1 x" Div0|auto_generated|divider|divider|StageOut[13]~119_combout $end
$var wire 1 y" Div0|auto_generated|divider|divider|StageOut[13]~118_combout $end
$var wire 1 z" Div0|auto_generated|divider|divider|op_9~3 $end
$var wire 1 {" Div0|auto_generated|divider|divider|op_9~4_combout $end
$var wire 1 |" Div0|auto_generated|divider|divider|StageOut[18]~122_combout $end
$var wire 1 }" Div0|auto_generated|divider|divider|op_10~5 $end
$var wire 1 ~" Div0|auto_generated|divider|divider|op_10~7_cout $end
$var wire 1 !# Div0|auto_generated|divider|divider|op_10~8_combout $end
$var wire 1 "# average[10]~20_combout $end
$var wire 1 ## average[10]~feeder_combout $end
$var wire 1 $# Add0~21 $end
$var wire 1 %# Add0~23 $end
$var wire 1 &# Add0~24_combout $end
$var wire 1 '# Add2~25 $end
$var wire 1 (# Add2~26_combout $end
$var wire 1 )# Add3~27 $end
$var wire 1 *# Add3~28_combout $end
$var wire 1 +# Div0|auto_generated|divider|divider|op_8~3 $end
$var wire 1 ,# Div0|auto_generated|divider|divider|op_8~5 $end
$var wire 1 -# Div0|auto_generated|divider|divider|op_8~7_cout $end
$var wire 1 .# Div0|auto_generated|divider|divider|op_8~8_combout $end
$var wire 1 /# Div0|auto_generated|divider|divider|StageOut[14]~116_combout $end
$var wire 1 0# Div0|auto_generated|divider|divider|op_8~4_combout $end
$var wire 1 1# Div0|auto_generated|divider|divider|StageOut[14]~117_combout $end
$var wire 1 2# Div0|auto_generated|divider|divider|op_9~5 $end
$var wire 1 3# Div0|auto_generated|divider|divider|op_9~7_cout $end
$var wire 1 4# Div0|auto_generated|divider|divider|op_9~8_combout $end
$var wire 1 5# average[11]~21_combout $end
$var wire 1 6# Add0~22_combout $end
$var wire 1 7# Add2~22_combout $end
$var wire 1 8# Add3~22_combout $end
$var wire 1 9# Div0|auto_generated|divider|divider|StageOut[16]~124_combout $end
$var wire 1 :# Div0|auto_generated|divider|divider|op_10~2_combout $end
$var wire 1 ;# Div0|auto_generated|divider|divider|StageOut[26]~167_combout $end
$var wire 1 <# Div0|auto_generated|divider|divider|op_11~4_combout $end
$var wire 1 =# Div0|auto_generated|divider|divider|StageOut[26]~130_combout $end
$var wire 1 ># Div0|auto_generated|divider|divider|op_12~5 $end
$var wire 1 ?# Div0|auto_generated|divider|divider|op_12~7_cout $end
$var wire 1 @# Div0|auto_generated|divider|divider|op_12~8_combout $end
$var wire 1 A# average[8]~18_combout $end
$var wire 1 B# Add0~16_combout $end
$var wire 1 C# Add2~16_combout $end
$var wire 1 D# Add3~16_combout $end
$var wire 1 E# Div0|auto_generated|divider|divider|StageOut[33]~181_combout $end
$var wire 1 F# Div0|auto_generated|divider|divider|StageOut[38]~170_combout $end
$var wire 1 G# Div0|auto_generated|divider|divider|op_14~4_combout $end
$var wire 1 H# Div0|auto_generated|divider|divider|StageOut[38]~142_combout $end
$var wire 1 I# Div0|auto_generated|divider|divider|op_1~5 $end
$var wire 1 J# Div0|auto_generated|divider|divider|op_1~7_cout $end
$var wire 1 K# Div0|auto_generated|divider|divider|op_1~8_combout $end
$var wire 1 L# average[5]~15_combout $end
$var wire 1 M# Add0~10_combout $end
$var wire 1 N# Add2~10_combout $end
$var wire 1 O# Add3~10_combout $end
$var wire 1 P# Div0|auto_generated|divider|divider|StageOut[45]~184_combout $end
$var wire 1 Q# Div0|auto_generated|divider|divider|op_3~4_combout $end
$var wire 1 R# Div0|auto_generated|divider|divider|StageOut[50]~154_combout $end
$var wire 1 S# Div0|auto_generated|divider|divider|StageOut[50]~173_combout $end
$var wire 1 T# Div0|auto_generated|divider|divider|op_4~5 $end
$var wire 1 U# Div0|auto_generated|divider|divider|op_4~7_cout $end
$var wire 1 V# Div0|auto_generated|divider|divider|op_4~8_combout $end
$var wire 1 W# Div0|auto_generated|divider|divider|StageOut[58]~175_combout $end
$var wire 1 X# Div0|auto_generated|divider|divider|op_5~4_combout $end
$var wire 1 Y# Div0|auto_generated|divider|divider|StageOut[58]~162_combout $end
$var wire 1 Z# Div0|auto_generated|divider|divider|op_5~2_combout $end
$var wire 1 [# Div0|auto_generated|divider|divider|StageOut[57]~163_combout $end
$var wire 1 \# Div0|auto_generated|divider|divider|StageOut[57]~187_combout $end
$var wire 1 ]# Div0|auto_generated|divider|divider|StageOut[56]~164_combout $end
$var wire 1 ^# Div0|auto_generated|divider|divider|op_5~0_combout $end
$var wire 1 _# Div0|auto_generated|divider|divider|StageOut[56]~165_combout $end
$var wire 1 `# Add3~0_combout $end
$var wire 1 a# average[0]~2_cout $end
$var wire 1 b# average[0]~4_cout $end
$var wire 1 c# average[0]~6_cout $end
$var wire 1 d# average[0]~8_cout $end
$var wire 1 e# average[0]~9_combout $end
$var wire 1 f# memory_1 [11] $end
$var wire 1 g# memory_1 [10] $end
$var wire 1 h# memory_1 [9] $end
$var wire 1 i# memory_1 [8] $end
$var wire 1 j# memory_1 [7] $end
$var wire 1 k# memory_1 [6] $end
$var wire 1 l# memory_1 [5] $end
$var wire 1 m# memory_1 [4] $end
$var wire 1 n# memory_1 [3] $end
$var wire 1 o# memory_1 [2] $end
$var wire 1 p# memory_1 [1] $end
$var wire 1 q# memory_1 [0] $end
$var wire 1 r# memory_3 [11] $end
$var wire 1 s# memory_3 [10] $end
$var wire 1 t# memory_3 [9] $end
$var wire 1 u# memory_3 [8] $end
$var wire 1 v# memory_3 [7] $end
$var wire 1 w# memory_3 [6] $end
$var wire 1 x# memory_3 [5] $end
$var wire 1 y# memory_3 [4] $end
$var wire 1 z# memory_3 [3] $end
$var wire 1 {# memory_3 [2] $end
$var wire 1 |# memory_3 [1] $end
$var wire 1 }# memory_3 [0] $end
$var wire 1 ~# average [11] $end
$var wire 1 !$ average [10] $end
$var wire 1 "$ average [9] $end
$var wire 1 #$ average [8] $end
$var wire 1 $$ average [7] $end
$var wire 1 %$ average [6] $end
$var wire 1 &$ average [5] $end
$var wire 1 '$ average [4] $end
$var wire 1 ($ average [3] $end
$var wire 1 )$ average [2] $end
$var wire 1 *$ average [1] $end
$var wire 1 +$ average [0] $end
$var wire 1 ,$ number [1] $end
$var wire 1 -$ number [0] $end
$var wire 1 .$ memory_2 [11] $end
$var wire 1 /$ memory_2 [10] $end
$var wire 1 0$ memory_2 [9] $end
$var wire 1 1$ memory_2 [8] $end
$var wire 1 2$ memory_2 [7] $end
$var wire 1 3$ memory_2 [6] $end
$var wire 1 4$ memory_2 [5] $end
$var wire 1 5$ memory_2 [4] $end
$var wire 1 6$ memory_2 [3] $end
$var wire 1 7$ memory_2 [2] $end
$var wire 1 8$ memory_2 [1] $end
$var wire 1 9$ memory_2 [0] $end
$var wire 1 :$ memory_0 [11] $end
$var wire 1 ;$ memory_0 [10] $end
$var wire 1 <$ memory_0 [9] $end
$var wire 1 =$ memory_0 [8] $end
$var wire 1 >$ memory_0 [7] $end
$var wire 1 ?$ memory_0 [6] $end
$var wire 1 @$ memory_0 [5] $end
$var wire 1 A$ memory_0 [4] $end
$var wire 1 B$ memory_0 [3] $end
$var wire 1 C$ memory_0 [2] $end
$var wire 1 D$ memory_0 [1] $end
$var wire 1 E$ memory_0 [0] $end
$upscope $end
$upscope $end
$enddefinitions $end
#0
$dumpvars
b0 !
0"
0.
0-
0,
0+
0*
0)
0(
0'
0&
0%
0$
0#
x/
00
11
x2
13
14
15
06
07
08
09
0:
0;
0<
0=
0>
0?
0@
0A
0B
0C
0D
1E
0F
0G
0H
0I
0J
0K
0L
0M
0N
0O
0P
0Q
0R
0S
0T
0U
1V
0W
1X
0Y
1Z
0[
1\
0]
0^
1_
0`
0a
0b
0c
0d
1e
0f
1g
0h
0i
0j
0k
0l
0m
0n
0o
0p
0q
0r
0s
0t
0u
0v
0w
0x
0y
1z
0{
0|
0}
0~
0!!
0"!
1#!
0$!
1%!
0&!
1'!
0(!
0)!
0*!
0+!
1,!
0-!
0.!
0/!
10!
01!
02!
03!
04!
15!
06!
07!
18!
09!
0:!
0;!
1<!
0=!
0>!
0?!
1@!
0A!
1B!
1C!
0D!
1E!
0F!
0G!
1H!
0I!
0J!
1K!
0L!
1M!
0N!
0O!
0P!
1Q!
0R!
0S!
1T!
0U!
0V!
0W!
1X!
0Y!
0Z!
0[!
1\!
0]!
1^!
0_!
1`!
1a!
0b!
1c!
0d!
0e!
1f!
0g!
0h!
0i!
1j!
0k!
0l!
0m!
1n!
0o!
0p!
0q!
1r!
0s!
0t!
0u!
1v!
1w!
0x!
0y!
1z!
0{!
0|!
0}!
1~!
0!"
0""
1#"
0$"
0%"
0&"
0'"
1("
0)"
0*"
1+"
0,"
0-"
0."
1/"
00"
01"
12"
03"
14"
05"
16"
17"
08"
09"
0:"
0;"
1<"
0="
0>"
1?"
0@"
0A"
1B"
0C"
0D"
1E"
0F"
0G"
0H"
1I"
0J"
0K"
0L"
1M"
1N"
0O"
0P"
1Q"
0R"
0S"
1T"
0U"
0V"
1W"
0X"
1Y"
0Z"
0["
0\"
1]"
0^"
0_"
1`"
0a"
0b"
1c"
0d"
0e"
0f"
0g"
0h"
1i"
0j"
1k"
1l"
0m"
1n"
0o"
0p"
1q"
0r"
0s"
0t"
0u"
1v"
0w"
0x"
0y"
1z"
0{"
0|"
0}"
1~"
1!#
0"#
0##
0$#
1%#
0&#
0'#
0(#
1)#
0*#
1+#
0,#
1-#
1.#
0/#
00#
01#
02#
13#
14#
05#
06#
07#
08#
09#
1:#
0;#
0<#
0=#
0>#
1?#
1@#
0A#
0B#
0C#
0D#
0E#
0F#
0G#
0H#
0I#
1J#
1K#
0L#
0M#
0N#
0O#
0P#
0Q#
0R#
0S#
0T#
1U#
1V#
0W#
0X#
0Y#
1Z#
0[#
0\#
0]#
1^#
0_#
0`#
0a#
1b#
0c#
1d#
0e#
0q#
0p#
0o#
0n#
0m#
0l#
0k#
0j#
0i#
0h#
0g#
0f#
0}#
0|#
0{#
0z#
0y#
0x#
0w#
0v#
0u#
0t#
0s#
0r#
0+$
0*$
0)$
0($
0'$
0&$
0%$
0$$
0#$
0"$
0!$
0~#
0-$
0,$
09$
08$
07$
06$
05$
04$
03$
02$
01$
00$
0/$
0.$
0E$
0D$
0C$
0B$
0A$
0@$
0?$
0>$
0=$
0<$
0;$
0:$
$end
#20000
1"
1B
1C
0/
1-$
0_
1H
1F
0E
#40000
b10000 !
b11000 !
0"
1O
1N
0B
0C
1/
1P
#60000
1"
1B
1C
0/
1n#
1m#
1,$
0-$
1q
1o
1I
0H
1E
1|
1I!
1*!
1&!
1:!
12!
1+!
00!
1-!
1)!
1W!
0'!
1W#
1X#
05!
08!
0^!
16!
1.!
0X!
0\!
0d#
1T#
06!
1Q#
0B!
1Y!
1e#
0U#
0C!
0V#
1_#
1[#
1Y#
0W#
1D!
1=!
0:!
0.!
1p
0b#
0@!
0Z#
0X#
1B!
1c#
1X#
0[#
0Y#
1C!
0c#
0_#
1\#
0D!
1d#
1b#
1c#
0e#
0c#
0d#
1d#
1e#
0e#
#80000
b11010 !
0"
1R
0B
0C
1/
#100000
1"
1B
1C
0/
18$
16$
15$
1-$
1t
0X
0q
1Y
0o
0I
1G
0F
0E
1~
1o
0|
1n
0I!
1>!
1I!
0*!
1N#
0&!
1]#
1?!
0^#
1&!
02!
0+!
10!
1O#
0-!
0)!
0W!
1'!
0b#
1Z#
1-!
1)!
1W!
0'!
15!
18!
1^!
1P#
1V!
1P!
0T!
0T#
16!
1X!
1\!
1c#
0^!
0,!
0X!
1W#
19!
1S#
0r!
0Q!
1U#
17!
0Y!
0d#
1_!
0Q#
1Y!
1A!
0X#
0U#
1s!
1V#
0B!
1e#
0`!
0V#
0\#
0W#
0=!
09!
07!
1.!
0p
0C!
0a!
1=!
19!
17!
0.!
1p
0c#
0Z#
0A!
1X#
0]#
1[#
1D!
0S#
1b!
11!
0-!
1Z#
1A!
0X#
1d#
0[#
1Y#
1b#
1c#
1U#
05!
08!
06!
1[#
0Y#
0e#
0c#
0d#
1V#
16!
09!
07!
1d#
1e#
0=!
1:!
0p
0A!
1X#
0e#
0Z#
1A!
0X#
1B!
1Y#
0[#
0B!
0Y#
1C!
0d#
0C!
1d#
1]#
1W#
0D!
1e#
0]#
0W#
1D!
0e#
0b#
0d#
1b#
1d#
1e#
0e#
#120000
b11110 !
b11100 !
0"
0R
1Q
0B
0C
1/
#140000
1"
1B
1C
0/
1{#
1z#
1y#
0,$
0-$
1($
1*$
13!
1*!
1J!
0&!
1_
0G
1E
1G!
1v
19
17
1+
1-
1;!
14!
0<!
1+!
00!
0K!
0O#
0)!
0W!
1'!
1|
0z
0~
1Z#
18!
0:!
01!
1L!
0P#
0V!
0P!
1T!
0\!
0%!
0*!
1}
0>!
1[#
0A!
1X#
08!
1S!
1O!
1m!
0M!
0_!
1Q#
1X!
1\!
1r!
1Q!
1&!
0+!
10!
1$!
03!
0?!
1^#
1B!
1Y#
1[!
0r!
0Q!
04"
0n!
1`!
1R#
0s!
1)!
1W!
0'!
1^!
1,!
1:!
11!
1*!
0;!
04!
1<!
0Z#
1_#
1C!
0d#
0`!
1s!
1G#
1a!
0U#
0^!
0,!
0X!
0\!
0Q#
1/!
1.!
1A!
0X#
1+!
00!
1@!
1Z#
0[#
0b#
0_#
0Y#
1W#
0D!
1e#
0a!
0R#
0b!
12!
01!
0/!
0.!
1-!
0V#
1Q#
1u!
0Y!
1T#
06!
0B!
1,!
0A!
1X#
1b#
1R#
1b!
0:!
02!
1/!
0-!
1B!
1\#
1=!
1p
0v!
0C!
0W#
0X#
15!
18!
1C!
0@!
0Z#
0w!
1_#
0\#
1[#
1Y#
1D!
0Y#
0T#
16!
1W#
19!
0_#
1\#
0[#
0D!
1X#
1x!
0[!
0)!
0b#
17!
1A!
0X#
1b#
1c#
1`!
0,!
0B!
0c#
1a!
0/!
0C!
0R#
0b!
12!
06!
1_#
0\#
0W#
1D!
1U#
05!
08!
07!
0b#
1d#
1V#
16!
09!
0e#
0=!
1:!
0p
0A!
1X#
1@!
1Z#
1A!
0X#
1B!
1Y#
0A!
1X#
1[#
0B!
0Y#
1C!
0d#
1B!
1c#
0C!
1d#
0_#
0[#
1W#
0D!
1e#
1C!
0d#
1_#
1[#
1Y#
0W#
1D!
0e#
1b#
0c#
0_#
0[#
0Y#
1W#
0D!
1e#
0b#
1b#
#160000
b11110 !
0"
1R
0B
0C
1/
