CLK_MULTIPLIER/simulation/qsim/clk_multiplier.msim.vcd
$comment
	File created using the following command:
		vcd file clk_multiplier.msim.vcd -direction
$end
$date
	Sat Aug 19 20:06:22 2023
$end
$version
	ModelSim Version 10.1d
$end
$timescale
	1ps
$end
$scope module clk_multiplier_vlg_vec_tst $end
$var reg 1 ! C_IN $end
$var reg 1 " CLK_IN_1 $end
$var reg 1 # CLK_IN_2 $end
$var reg 1 $ CLR $end
$var reg 1 % SET $end
$var reg 1 & T $end
$var wire 1 ' C_OUT $end
$var wire 1 ( CLK_OUT_1 $end
$var wire 1 ) CLK_OUT_2 $end
$var wire 1 * S0 $end
$var wire 1 + S1 $end
$var wire 1 , S2 $end
$var wire 1 - S3 $end
$var wire 1 . sampler $end
$scope module i1 $end
$var wire 1 / gnd $end
$var wire 1 0 vcc $end
$var wire 1 1 unknown $end
$var tri1 1 2 devclrn $end
$var tri1 1 3 devpor $end
$var tri1 1 4 devoe $end
$var wire 1 5 CLK_OUT_1~output_o $end
$var wire 1 6 CLK_OUT_2~output_o $end
$var wire 1 7 C_OUT~output_o $end
$var wire 1 8 S0~output_o $end
$var wire 1 9 S1~output_o $end
$var wire 1 : S2~output_o $end
$var wire 1 ; S3~output_o $end
$var wire 1 < SET~input_o $end
$var wire 1 = CLR~input_o $end
$var wire 1 > inst3~1_combout $end
$var wire 1 ? CLK_IN_1~input_o $end
$var wire 1 @ inst~1_combout $end
$var wire 1 A inst3~0_combout $end
$var wire 1 B T~input_o $end
$var wire 1 C inst~_emulated_q $end
$var wire 1 D inst~0_combout $end
$var wire 1 E inst1~1_combout $end
$var wire 1 F inst1~_emulated_q $end
$var wire 1 G inst1~0_combout $end
$var wire 1 H inst2~1_combout $end
$var wire 1 I inst2~_emulated_q $end
$var wire 1 J inst2~0_combout $end
$var wire 1 K inst3~3_combout $end
$var wire 1 L inst3~_emulated_q $end
$var wire 1 M inst3~2_combout $end
$var wire 1 N CLK_IN_2~input_o $end
$var wire 1 O inst7~1_combout $end
$var wire 1 P inst7~_emulated_q $end
$var wire 1 Q inst7~0_combout $end
$var wire 1 R inst8~1_combout $end
$var wire 1 S inst8~_emulated_q $end
$var wire 1 T inst8~0_combout $end
$var wire 1 U inst9~1_combout $end
$var wire 1 V inst9~_emulated_q $end
$var wire 1 W inst9~0_combout $end
$var wire 1 X inst10~1_combout $end
$var wire 1 Y inst10~_emulated_q $end
$var wire 1 Z inst10~0_combout $end
$var wire 1 [ C_IN~input_o $end
$var wire 1 \ inst22~0_combout $end
$var wire 1 ] inst28~0_combout $end
$var wire 1 ^ inst34~0_combout $end
$var wire 1 _ inst40~0_combout $end
$var wire 1 ` inst17~0_combout $end
$var wire 1 a inst23~combout $end
$var wire 1 b inst29~combout $end
$var wire 1 c inst35~combout $end
$upscope $end
$upscope $end
$enddefinitions $end
#0
$dumpvars
0!
0"
0#
0$
0%
0&
0'
1(
1)
0*
0+
0,
0-
x.
0/
10
x1
12
13
14
15
16
07
08
09
0:
0;
0<
0=
0>
0?
1@
1A
0B
0C
0D
1E
0F
0G
1H
0I
0J
1K
0L
0M
0N
1O
0P
0Q
1R
0S
0T
1U
0V
0W
1X
0Y
0Z
0[
0\
0]
0^
0_
0`
0a
0b
0c
$end
#10000
1&
1%
1B
1<
0.
#20000
1$
1=
1.
0A
#45000
1"
1?
0.
1C
1D
0@
1`
18
1*
#50000
0"
0?
1.
#55000
1"
1?
0.
0C
0D
1@
0`
08
0*
1F
1G
0E
1a
19
1+
#60000
0"
0?
1.
#65000
1"
1?
0.
1C
1D
0@
1`
18
1*
#70000
0"
0?
1.
#75000
1"
1?
0.
0C
0D
1@
0`
08
0*
0F
0G
1E
0a
09
0+
1I
1J
0H
1b
1:
1,
#80000
0"
0?
1.
#85000
1#
1"
1N
1?
0.
1P
1C
1Q
1D
1\
0O
0@
1a
19
1+
#90000
0#
0"
0N
0?
1.
#95000
1#
1"
1N
1?
0.
0P
0C
0Q
0D
0\
1O
1@
0a
09
0+
1S
1F
1T
1G
1]
0R
0E
1^
0b
0:
0,
1c
1;
1-
#100000
0#
0"
0N
0?
1.
#105000
1#
1"
1N
1?
0.
1P
1C
1Q
1D
1\
0O
0@
1a
19
1+
#110000
0#
0"
0N
0?
1.
#115000
1#
1"
1N
1?
0.
0P
0C
0Q
0D
0\
1O
1@
0a
09
0+
0S
0F
0T
0G
0]
1R
1E
0^
1b
1:
1,
0c
0;
0-
1V
0I
1W
0J
0U
1H
1L
1M
0K
05
0(
1c
1;
1-
#120000
0#
0"
0N
0?
1.
#125000
1#
1"
1N
1?
0.
1P
1C
1Q
1D
1\
0O
0@
1a
19
1+
#130000
0#
0"
0N
0?
1.
#135000
1#
1"
1N
1?
0.
0P
0C
0Q
0D
0\
1O
1@
0a
09
0+
1S
1F
1T
1G
1]
0R
0E
1^
0b
0:
0,
0c
1_
0;
17
0-
1'
#140000
0#
0"
0N
0?
1.
#145000
1#
1"
1N
1?
0.
1P
1C
1Q
1D
1\
0O
0@
1a
19
1+
#150000
0#
0"
0N
0?
1.
#155000
1#
1"
1N
1?
0.
0P
0C
0Q
0D
0\
1O
1@
0a
09
0+
0S
0F
0T
0G
0]
1R
1E
0^
1b
1:
1,
1c
0_
1;
07
1-
0'
0V
1I
0W
1J
1U
0H
1Y
1Z
0X
06
0)
0c
1_
0;
17
0-
1'
#160000
0#
0"
0N
0?
1.
#165000
1#
1N
0.
1P
1Q
0O
1`
18
1*
#170000
0#
0N
1.
#175000
1#
1N
0.
0P
0Q
1O
0`
08
0*
1S
1T
0R
1a
19
1+
#180000
0#
0N
1.
#185000
1#
1N
0.
1P
1Q
0O
1`
18
1*
#190000
0#
0N
1.
#195000
1#
1N
0.
0P
0Q
1O
0`
08
0*
0S
0T
1R
0a
09
0+
1V
1W
1^
0U
0b
0:
0,
1c
1;
1-
#200000
0#
0N
1.
#240000
1!
1[
0.
1`
18
1*
#260000
0!
0[
1.
0`
08
0*
